{
  "project_info": {
    "project_number": "633172628051",
    "project_id": "bghs-9d262",
    "storage_bucket": "bghs-9d262.appspot.com"
  },
  "client": [
    {
      "client_info": {
        "mobilesdk_app_id": "1:633172628051:android:f50f7877c6dfc8f2b7eca6",
        "android_client_info": {
          "package_name": "com.logicalclass.onlinecourseproject.bghs"
        }
      },
      "oauth_client": [
        {
          "client_id": "633172628051-kppa17jc7ltra92e4qujp53ove98vn7l.apps.googleusercontent.com",
          "client_type": 3
        }
      ],
      "api_key": [
        {
          "current_key": "AIzaSyBtWiD-1OyW2LakV1X8aXScp-pYM1blYTs"
        }
      ],
      "services": {
        "appinvite_service": {
          "other_platform_oauth_client": [
            {
              "client_id": "633172628051-kppa17jc7ltra92e4qujp53ove98vn7l.apps.googleusercontent.com",
              "client_type": 3
            }
          ]
        }
      }
    }
  ],
  "configuration_version": "1"
}